Aufgaben/wokwi/konstantlicht/wokwi-logic (1).vcd
$version Generated by Wokwi.com $end
$date Tue, 24 Feb 2026 13:12:21 GMT $end
$timescale 1ns $end
$scope module logic $end
$var wire 1 ! PWM_LED $end
$upscope $end
$enddefinitions $end
#0
0!
#457584
1!
#2602627656
0!
#2606689496
1!
#2706981952
0!
#2707252968
1!
#2707997744
0!
#2708268760
1!
#2709013536
0!
#2709284552
1!
#2710029328
0!
#2710300344
1!
#2711045120
0!
#2711316136
1!
#2712060912
0!
#2712331928
1!
#2713076704
0!
#2713347720
1!
#2714092496
0!
#2714363512
1!
#2715108288
0!
#2715379312
1!
#2716124080
0!
#2716395088
1!
#2717139872
0!
#2717410896
1!
#2718155664
0!
#2718426688
1!
#2719171464
0!
#2719442480
1!
#2720187256
0!
#2720458272
1!
#2721203048
0!
#2721474064
1!
#2722218840
0!
#2722489856
1!
#2723234632
0!
#2723505648
1!
#2724250424
0!
#2724521440
1!
#2725266216
0!
#2725537232
1!
#2726282008
0!
#2726553024
1!
#2727297800
0!
#2727568816
1!
#2728313592
0!
#2728584608
1!
#2729329384
0!
#2729600400
1!
#2730345176
0!
#2730616192
1!
#2731360968
0!
#2731631992
1!
#2732376760
0!
#2732647768
1!
#2733392552
0!
#2733663576
1!
#2734408344
0!
#2734679368
1!
#2735424144
0!
#2735695160
1!
#2736439936
0!
#2736710952
1!
#2737455728
0!
#2737726744
1!
#2738471520
0!
#2738742536
1!
#2739487312
0!
#2739758328
1!
#2740503104
0!
#2740774120
1!
#2741518896
0!
#2741789912
1!
#2742534688
0!
#2742805704
1!
#2743550480
0!
#2743821496
1!
#2744566272
0!
#2744837288
1!
#2745582064
0!
#2745853080
1!
#2746597856
0!
#2746868872
1!
#2747613648
0!
#2747884672
1!
#2748629440
0!
#2748900448
1!
#2749645232
0!
#2749916256
1!
#2750661024
0!
#2750932048
1!
#2751676824
0!
#2751947840
1!
#2752692616
0!
#2752963632
1!
#2753708408
0!
#2753979424
1!
#2754724200
0!
#2754995216
1!
#2755739992
0!
#2756011008
1!
#2756755784
0!
#2757026800
1!
#2757771576
0!
#2758042592
1!
#2758787368
0!
#2759058384
1!
#2759803160
0!
#2760074176
1!
#2760818952
0!
#2761089968
1!
#2761834744
0!
#2762105760
1!
#2762850536
0!
#2763121552
1!
#2763866328
0!
#2764137352
1!
#2764882120
0!
#2765153128
1!
#2765897912
0!
#2766168936
1!
#2766913704
0!
#2767184728
1!
#2767929504
0!
#2768200520
1!
#2768945296
0!
#2769216312
1!
#2769961088
0!
#2770232104
1!
#2770976880
0!
#2771247896
1!
#2771992672
0!
#2772263688
1!
#2773008464
0!
#2773279480
1!
#2774024256
0!
#2774295272
1!
#2775040048
0!
#2775311064
1!
#2776055840
0!
#2776326856
1!
#2777071632
0!
#2777342648
1!
#2778087424
0!
#2778358440
1!
#2779103216
0!
#2779374232
1!
#2780119008
0!
#2780390032
1!
#2781134800
0!
#2781405808
1!
#2782150592
0!
#2782421616
1!
#2783166384
0!
#2783437408
1!
#2784182184
0!
#2784453200
1!
#2785197976
0!
#2785468992
1!
#2786213768
0!
#2786484784
1!
#2787229560
0!
#2787500576
1!
#2788245352
0!
#2788516368
1!
#2789261144
0!
#2789532160
1!
#2790276936
0!
#2790547952
1!
#2791292728
0!
#2791563744
1!
#2792308520
0!
#2792579536
1!
#2793324312
0!
#2793595328
1!
#2794340104
0!
#2794611120
1!
#2795355896
0!
#2795626912
1!
#2796371688
0!
#2796642712
1!
#2797387480
0!
#2797658488
1!
#2798403272
0!
#2798674296
1!
#2799419064
0!
#2799690088
1!
#2800434864
0!
#2800705880
1!
#2801450656
0!
#2801721672
1!
#2802466448
0!
#2802737464
1!
#2803482240
0!
#2803753256
1!
#2804498032
0!
#2804769048
1!
#2805513824
0!
#2805784840
1!
#2806529648
0!
#2907364088
1!
#2907968792
0!
#2908379880
1!
#2908984584
0!
#2909395672
1!
#2910000376
0!
#2910411472
1!
#2911016168
0!
#2911427248
1!
#2912031960
0!
#2912443056
1!
#2913047752
0!
#2913458848
1!
#2914063544
0!
#2914474640
1!
#2915079336
0!
#2915490432
1!
#2916095128
0!
#2916506224
1!
#2917110928
0!
#2917522016
1!
#2918126720
0!
#2918537808
1!
#2919142512
0!
#2919553600
1!
#2920158304
0!
#2920569392
1!
#2921174096
0!
#2921585184
1!
#2922189888
0!
#2922600976
1!
#2923205680
0!
#2923616768
1!
#2924221472
0!
#2924632560
1!
#2925237264
0!
#2925648352
1!
#2926253056
0!
#2926664152
1!
#2927268848
0!
#2927679928
1!
#2928284640
0!
#2928695736
1!
#2929300432
0!
#2929711528
1!
#2930316224
0!
#2930727320
1!
#2931332016
0!
#2931743112
1!
#2932347808
0!
#2932758904
1!
#2933363608
0!
#2933774696
1!
#2934379400
0!
#2934790488
1!
#2935395192
0!
#2935806280
1!
#2936410984
0!
#2936822072
1!
#2937426776
0!
#2937837864
1!
#2938442568
0!
#2938853656
1!
#2939458360
0!
#2939869448
1!
#2940474152
0!
#2940885240
1!
#2941489944
0!
#2941901032
1!
#2942505736
0!
#2942916832
1!
#2943521528
0!
#2943932608
1!
#2944537320
0!
#2944948416
1!
#2945553112
0!
#2945964208
1!
#2946568904
0!
#2946980000
1!
#2947584696
0!
#2947995792
1!
#2948600488
0!
#2949011584
1!
#2949616288
0!
#2950027376
1!
#2950632080
0!
#2951043168
1!
#2951647872
0!
#2952058960
1!
#2952663664
0!
#2953074752
1!
#2953679456
0!
#2954090544
1!
#2954695248
0!
#2955106344
1!
#2955711040
0!
#2956122112
1!
#2956726832
0!
#2957137928
1!
#2957742624
0!
#2958153704
1!
#2958758416
0!
#2959169504
1!
#2959774208
0!
#2960185288
1!
#2960790000
0!
#2961201104
1!
#2961805792
0!
#2962216880
1!
#2962821584
0!
#2963232688
1!
#2963837376
0!
#2964248440
1!
#2964853168
0!
#2965264264
1!
#2965868968
0!
#2966280056
1!
#2966884760
0!
#2967295848
1!
#2967900552
0!
#2968311640
1!
#2968916344
0!
#2969327432
1!
#2969932136
0!
#2970343224
1!
#2970947928
0!
#2971359016
1!
#2971963720
0!
#2972374808
1!
#2972979512
0!
#2973390600
1!
#2973995304
0!
#2974406392
1!
#2975011096
0!
#2975422192
1!
#2976026888
0!
#2976437968
1!
#2977042680
0!
#2977453776
1!
#2978058472
0!
#2978469568
1!
#2979074264
0!
#2979485360
1!
#2980090056
0!
#2980501152
1!
#2981105848
0!
#2981516944
1!
#2982121648
0!
#2982532736
1!
#2983137440
0!
#2983548528
1!
#2984153232
0!
#2984564320
1!
#2985169024
0!
#2985580112
1!
#2986184816
0!
#2986595904
1!
#2987200608
0!
#2987611696
1!
#2988216400
0!
#2988627488
1!
#2989232192
0!
#2989643280
1!
#2990247984
0!
#2990659072
1!
#2991263776
0!
#2991674872
1!
#2992279568
0!
#2992690648
1!
#2993295360
0!
#2993706456
1!
#2994311152
0!
#2994722248
1!
#2995326944
0!
#2995738040
1!
#2996342736
0!
#2996753832
1!
#2997358528
0!
#2997769624
1!
#2998374328
0!
#2998785416
1!
#2999390120
0!
#2999801208
1!
#3000405912
0!
#3000817000
1!
#3001421704
0!
#3001832792
1!
#3002437496
0!
#3002848584
1!
#3003453288
0!
#3003864376
1!
#3004469080
0!
#3004880168
1!
#3005484872
0!
#3005895960
1!
#3006500664
0!
#3006911752
1!
#3007516456
0!
#3007927552
1!
#3008021168
0!
#3008943328
1!
#3009036976
0!
#3009959136
1!
#3010052768
0!
#3010974928
1!
#3011068560
0!
#3011990720
1!
#3012084352
0!
#3013006512
1!
#3013100144
0!
#3014022304
1!
#3014115936
0!
#3015038096
1!
#3015131728
0!
#3016053888
1!
#3016147520
0!
#3017069680
1!
#3017163312
0!
#3018085472
1!
#3018179112
0!
#3019101264
1!
#3019194904
0!
#3020117056
1!
#3020210696
0!
#3021132848
1!
#3021226488
0!
#3022148640
1!
#3022242280
0!
#3023164432
1!
#3023258072
0!
#3024180232
1!
#3024273864
0!
#3025196008
1!
#3025289656
0!
#3026211816
1!
#3026305448
0!
#3027227608
1!
#3027321240
0!
#3028243400
1!
#3028337032
0!
#3029259192
1!
#3029352824
0!
#3030274984
1!
#3030368616
0!
#3031290776
1!
#3031384408
0!
#3032306568
1!
#3032400200
0!
#3033322360
1!
#3033415992
0!
#3034338152
1!
#3034431792
0!
#3035353944
1!
#3035447584
0!
#3036369736
1!
#3036463376
0!
#3037385528
1!
#3037479168
0!
#3038401320
1!
#3038494960
0!
#3039417112
1!
#3039510752
0!
#3040432912
1!
#3040526544
0!
#3041448688
1!
#3041542336
0!
#3042464496
1!
#3042558128
0!
#3043480288
1!
#3043573920
0!
#3044496080
1!
#3044589712
0!
#3045511872
1!
#3045605504
0!
#3046527664
1!
#3046621296
0!
#3047543456
1!
#3047637088
0!
#3048559248
1!
#3048652880
0!
#3049575040
1!
#3049668672
0!
#3050590832
1!
#3050684472
0!
#3051606624
1!
#3051700264
0!
#3052622416
1!
#3052716056
0!
#3053638208
1!
#3053731848
0!
#3054654000
1!
#3054747640
0!
#3055669792
1!
#3055763432
0!
#3056685592
1!
#3056779224
0!
#3057701368
1!
#3057795016
0!
#3058717176
1!
#3058810808
0!
#3059732968
1!
#3059826600
0!
#3060748760
1!
#3060842392
0!
#3061764552
1!
#3061858184
0!
#3062780344
1!
#3062873976
0!
#3063796136
1!
#3063889768
0!
#3064811928
1!
#3064905560
0!
#3065827720
1!
#3065921352
0!
#3066843512
1!
#3066937152
0!
#3067859304
1!
#3067952944
0!
#3068875096
1!
#3068968736
0!
#3069890888
1!
#3069984528
0!
#3070906680
1!
#3071000320
0!
#3071922472
1!
#3072016112
0!
#3072938272
1!
#3073031904
0!
#3073954048
1!
#3074047696
0!
#3074969856
1!
#3075063488
0!
#3075985648
1!
#3076079280
0!
#3077001440
1!
#3077095072
0!
#3078017232
1!
#3078110864
0!
#3079033024
1!
#3079126656
0!
#3080048816
1!
#3080142448
0!
#3081064608
1!
#3081158240
0!
#3082080400
1!
#3082174032
0!
#3083096192
1!
#3083189832
0!
#3084111984
1!
#3084205624
0!
#3085127776
1!
#3085221416
0!
#3086143568
1!
#3086237208
0!
#3087159360
1!
#3087253000
0!
#3088175152
1!
#3088268792
0!
#3089190952
1!
#3089284584
0!
#3090206728
1!
#3090300376
0!
#3091222536
1!
#3091316168
0!
#3092238328
1!
#3092331960
0!
#3093254120
1!
#3093347752
0!
#3094269912
1!
#3094363544
0!
#3095285704
1!
#3095379336
0!
#3096301496
1!
#3096395128
0!
#3097317288
1!
#3097410920
0!
#3098333080
1!
#3098426712
0!
#3099348872
1!
#3099442512
0!
#3100364664
1!
#3100458304
0!
#3101380456
1!
#3101474096
0!
#3102396248
1!
#3102489888
0!
#3103412040
1!
#3103505680
0!
#3104427832
1!
#3104521472
0!
#3105443632
1!
#3105537264
0!
#3106459408
1!
#3106553072
0!
#3107475216
1!
#3108070832
0!
#3108491008
1!
#3109086624
0!
#3109506800
1!
#3110102416
0!
#3110522592
1!
#3111118208
0!
#3111538384
1!
#3112134000
0!
#3112554176
1!
#3113149792
0!
#3113569968
1!
#3114165584
0!
#3114585760
1!
#3115181376
0!
#3115601552
1!
#3116197168
0!
#3116617344
1!
#3117212960
0!
#3117633136
1!
#3118228760
0!
#3118648928
1!
#3119244552
0!
#3119664720
1!
#3120260344
0!
#3120680512
1!
#3121276136
0!
#3121696312
1!
#3122291928
0!
#3122712088
1!
#3123307720
0!
#3123727896
1!
#3124323512
0!
#3124743688
1!
#3125339304
0!
#3125759480
1!
#3126355096
0!
#3126775272
1!
#3127370888
0!
#3127791064
1!
#3128386680
0!
#3128806856
1!
#3129402472
0!
#3129822648
1!
#3130418264
0!
#3130838440
1!
#3131434056
0!
#3131854232
1!
#3132449848
0!
#3132870024
1!
#3133465640
0!
#3133885816
1!
#3134481440
0!
#3134901608
1!
#3135497232
0!
#3135917400
1!
#3136513024
0!
#3136933192
1!
#3137528816
0!
#3137948992
1!
#3138544608
0!
#3138964768
1!
#3139560400
0!
#3139980576
1!
#3140576192
0!
#3140996368
1!
#3141591984
0!
#3142012160
1!
#3142607776
0!
#3143027952
1!
#3143623568
0!
#3144043744
1!
#3144639360
0!
#3145059536
1!
#3145655152
0!
#3146075328
1!
#3146670944
0!
#3147091120
1!
#3147686736
0!
#3148106912
1!
#3148702528
0!
#3149122704
1!
#3149718320
0!
#3150138496
1!
#3150734120
0!
#3151154288
1!
#3151749912
0!
#3152170080
1!
#3152765704
0!
#3153185872
1!
#3153781496
0!
#3154201672
1!
#3154797288
0!
#3155217448
1!
#3155813080
0!
#3156233256
1!
#3156828872
0!
#3157249048
1!
#3157844664
0!
#3158264840
1!
#3158860456
0!
#3159280632
1!
#3159876248
0!
#3160296424
1!
#3160892040
0!
#3161312216
1!
#3161907832
0!
#3162328008
1!
#3162923624
0!
#3163343800
1!
#3163939416
0!
#3164359592
1!
#3164955208
0!
#3165375384
1!
#3165971008
0!
#3166391176
1!
#3166986784
0!
#3167406968
1!
#3168002576
0!
#3168422760
1!
#3169018384
0!
#3169438552
1!
#3170034176
0!
#3170454352
1!
#3171049968
0!
#3171470128
1!
#3172065760
0!
#3172485936
1!
#3173081552
0!
#3173501728
1!
#3174097344
0!
#3174517520
1!
#3175113136
0!
#3175533312
1!
#3176128928
0!
#3176549104
1!
#3177144720
0!
#3177564896
1!
#3178160512
0!
#3178580688
1!
#3179176304
0!
#3179596480
1!
#3180192096
0!
#3180612272
1!
#3181207888
0!
#3181628064
1!
#3182223680
0!
#3182643856
1!
#3183239480
0!
#3183659648
1!
#3184255272
0!
#3184675440
1!
#3185271064
0!
#3185691232
1!
#3186286856
0!
#3186707032
1!
#3187302648
0!
#3187722808
1!
#3188318440
0!
#3188738616
1!
#3189334232
0!
#3189754408
1!
#3190350024
0!
#3190770200
1!
#3191365816
0!
#3191785992
1!
#3192381608
0!
#3192801784
1!
#3193397400
0!
#3193817576
1!
#3194413192
0!
#3194833368
1!
#3195428984
0!
#3195849160
1!
#3196444776
0!
#3196864952
1!
#3197460568
0!
#3197880744
1!
#3198476360
0!
#3198896536
1!
#3199492160
0!
#3199912328
1!
#3200507952
0!
#3200928120
1!
#3201523744
0!
#3201943912
1!
#3202539536
0!
#3202959712
1!
#3203555328
0!
#3203975488
1!
#3204571120
0!
#3204991296
1!
#3205586912
0!
#3206007088
1!
#3206602704
0!
#3207022880
1!
#3207618496
0!
#3208038672
1!
#3208634288
0!
#3209054464
1!
#3209164792
0!
#3210070256
1!
#3210180584
0!
#3211086048
1!
#3211196376
0!
#3212101840
1!
#3212212168
0!
#3213117632
1!
#3213227960
0!
#3214133424
1!
#3214243752
0!
#3215149216
1!
#3215259544
0!
#3216165008
1!
#3216275336
0!
#3217180800
1!
#3217291128
0!
#3218196592
1!
#3218306928
0!
#3219212392
1!
#3219322720
0!
#3220228168
1!
#3220338512
0!
#3221243976
1!
#3221354304
0!
#3222259768
1!
#3222370096
0!
#3223275560
1!
#3223385888
0!
#3224291352
1!
#3224401680
0!
#3225307144
1!
#3225417472
0!
#3226322936
1!
#3226433264
0!
#3227338728
1!
#3227449056
0!
#3228354520
1!
#3228464848
0!
#3229370312
1!
#3229480640
0!
#3230386104
1!
#3230496432
0!
#3231401896
1!
#3231512224
0!
#3232417688
1!
#3232528016
0!
#3233433480
1!
#3233543808
0!
#3234449272
1!
#3234559608
0!
#3235465072
1!
#3235575400
0!
#3236480848
1!
#3236591192
0!
#3237496656
1!
#3237606984
0!
#3238512448
1!
#3238622776
0!
#3239528240
1!
#3239638568
0!
#3240544032
1!
#3240654360
0!
#3241559824
1!
#3241670152
0!
#3242575616
1!
#3242685944
0!
#3243591408
1!
#3243701736
0!
#3244607200
1!
#3244717528
0!
#3245622992
1!
#3245733320
0!
#3246638784
1!
#3246749112
0!
#3247654576
1!
#3247764904
0!
#3248670368
1!
#3248780696
0!
#3249686160
1!
#3249796488
0!
#3250701952
1!
#3250812288
0!
#3251717752
1!
#3251828080
0!
#3252733528
1!
#3252843872
0!
#3253749336
1!
#3253859664
0!
#3254765128
1!
#3254875456
0!
#3255780920
1!
#3255891248
0!
#3256796712
1!
#3256907040
0!
#3257812504
1!
#3257922832
0!
#3258828296
1!
#3258938624
0!
#3259844088
1!
#3259954416
0!
#3260859880
1!
#3260970208
0!
#3261875672
1!
#3261986000
0!
#3262891464
1!
#3263001792
0!
#3263907256
1!
#3264017584
0!
#3264923048
1!
#3265033376
0!
#3265938840
1!
#3266049168
0!
#3266954632
1!
#3267064968
0!
#3267970432
1!
#3268080760
0!
#3268986208
1!
#3269096552
0!
#3270002016
1!
#3270112344
0!
#3271017808
1!
#3271128136
0!
#3272033600
1!
#3272143928
0!
#3273049392
1!
#3273159720
0!
#3274065184
1!
#3274175512
0!
#3275080976
1!
#3275191304
0!
#3276096768
1!
#3276207096
0!
#3277112560
1!
#3277222888
0!
#3278128352
1!
#3278238680
0!
#3279144144
1!
#3279254472
0!
#3280159936
1!
#3280270264
0!
#3281175728
1!
#3281286056
0!
#3282191520
1!
#3282301848
0!
#3283207312
1!
#3283317648
0!
#3284223112
1!
#3284333440
0!
#3285238888
1!
#3285349232
0!
#3286254696
1!
#3286365024
0!
#3287270488
1!
#3287380816
0!
#3288286280
1!
#3288396608
0!
#3289302072
1!
#3289412400
0!
#3290317864
1!
#3290428192
0!
#3291333656
1!
#3291443984
0!
#3292349448
1!
#3292459776
0!
#3293365240
1!
#3293475568
0!
#3294381032
1!
#3294491360
0!
#3295396824
1!
#3295507152
0!
#3296412616
1!
#3296522944
0!
#3297428408
1!
#3297538736
0!
#3298444200
1!
#3298554528
0!
#3299459992
1!
#3299570328
0!
#3300475792
1!
#3300586120
0!
#3301491568
1!
#3301601912
0!
#3302507376
1!
#3302617704
0!
#3303523168
1!
#3303633496
0!
#3304538960
1!
#3304649288
0!
#3305554752
1!
#3305665080
0!
#3306570544
1!
#3306680872
0!
#3307586336
1!
#3307696664
0!
#3308602128
1!
#3308712456
0!
#3309617920
1!
#3310201464
0!
#3310633712
1!
#3311217256
0!
#3311649504
1!
#3312233048
0!
#3312665296
1!
#3313248840
0!
#3313681088
1!
#3314264632
0!
#3314696880
1!
#3315280424
0!
#3315712672
1!
#3316296216
0!
#3316728472
1!
#3317312008
0!
#3317744248
1!
#3318327808
0!
#3318760056
1!
#3319343600
0!
#3319775848
1!
#3320359392
0!
#3320791640
1!
#3321375184
0!
#3321807432
1!
#3322390976
0!
#3322823224
1!
#3323406768
0!
#3323839016
1!
#3324422560
0!
#3324854808
1!
#3325438352
0!
#3325870600
1!
#3326454144
0!
#3326886392
1!
#3327469936
0!
#3327902184
1!
#3328485728
0!
#3328917976
1!
#3329501520
0!
#3329933768
1!
#3330517312
0!
#3330949560
1!
#3331533104
0!
#3331965352
1!
#3332548896
0!
#3332981152
1!
#3333564688
0!
#3333996928
1!
#3334580488
0!
#3335012736
1!
#3335596280
0!
#3336028528
1!
#3336612072
0!
#3337044320
1!
#3337627864
0!
#3338060112
1!
#3338643656
0!
#3339075904
1!
#3339659448
0!
#3340091696
1!
#3340675240
0!
#3341107488
1!
#3341691032
0!
#3342123280
1!
#3342706824
0!
#3343139072
1!
#3343722616
0!
#3344154864
1!
#3344738408
0!
#3345170656
1!
#3345754200
0!
#3346186448
1!
#3346769992
0!
#3347202240
1!
#3347785784
0!
#3348218032
1!
#3348801576
0!
#3349233832
1!
#3349817368
0!
#3350249608
1!
#3350833168
0!
#3351265416
1!
#3351848960
0!
#3352281208
1!
#3352864752
0!
#3353297000
1!
#3353880544
0!
#3354312792
1!
#3354896336
0!
#3355328584
1!
#3355912128
0!
#3356344376
1!
#3356927920
0!
#3357360168
1!
#3357943712
0!
#3358375960
1!
#3358959504
0!
#3359391752
1!
#3359975296
0!
#3360407544
1!
#3360991088
0!
#3361423336
1!
#3362006880
0!
#3362439128
1!
#3363022672
0!
#3363454920
1!
#3364038464
0!
#3364470712
1!
#3365054256
0!
#3365486512
1!
#3366070048
0!
#3366502288
1!
#3367085848
0!
#3367518096
1!
#3368101640
0!
#3368533888
1!
#3369117432
0!
#3369549680
1!
#3370133224
0!
#3370565472
1!
#3371149016
0!
#3371581264
1!
#3372164808
0!
#3372597056
1!
#3373180600
0!
#3373612848
1!
#3374196392
0!
#3374628640
1!
#3375212184
0!
#3375644432
1!
#3376227976
0!
#3376660224
1!
#3377243768
0!
#3377676016
1!
#3378259560
0!
#3378691808
1!
#3379275352
0!
#3379707600
1!
#3380291144
0!
#3380723392
1!
#3381306936
0!
#3381739192
1!
#3382322728
0!
#3382754968
1!
#3383338528
0!
#3383770776
1!
#3384354320
0!
#3384786568
1!
#3385370112
0!
#3385802360
1!
#3386385904
0!
#3386818152
1!
#3387401696
0!
#3387833944
1!
#3388417488
0!
#3388849736
1!
#3389433280
0!
#3389865528
1!
#3390449072
0!
#3390881320
1!
#3391464864
0!
#3391897112
1!
#3392480656
0!
#3392912904
1!
#3393496448
0!
#3393928696
1!
#3394512240
0!
#3394944488
1!
#3395528032
0!
#3395960280
1!
#3396543824
0!
#3396976072
1!
#3397559616
0!
#3397991872
1!
#3398575408
0!
#3399007648
1!
#3399591208
0!
#3400023456
1!
#3400607000
0!
#3401039248
1!
#3401622792
0!
#3402055040
1!
#3402638584
0!
#3403070832
1!
#3403654376
0!
#3404086624
1!
#3404670168
0!
#3405102416
1!
#3405685960
0!
#3406118208
1!
#3406701752
0!
#3407134000
1!
#3407717544
0!
#3408149792
1!
#3408733336
0!
#3409165584
1!
#3409749128
0!
#3410181376
1!
#3410305328
0!
#3411197168
1!
#3411321120
0!
#3412212960
1!
#3412336920
0!
#3413228752
1!
#3413352712
0!
#3414244552
1!
#3414368504
0!
#3415260328
1!
#3415384296
0!
#3416276136
1!
#3416400088
0!
#3417291928
1!
#3417415880
0!
#3418307720
1!
#3418431672
0!
#3419323512
1!
#3419447464
0!
#3420339304
1!
#3420463256
0!
#3421355096
1!
#3421479048
0!
#3422370888
1!
#3422494840
0!
#3423386680
1!
#3423510632
0!
#3424402472
1!
#3424526424
0!
#3425418264
1!
#3425542216
0!
#3426434056
1!
#3426558008
0!
#3427449848
1!
#3427573800
0!
#3428465656
1!
#3428589600
0!
#3429481424
1!
#3429605392
0!
#3430497216
1!
#3430621184
0!
#3431513008
1!
#3431636976
0!
#3432528824
1!
#3432652768
0!
#3433544592
1!
#3433668560
0!
#3434560408
1!
#3434684352
0!
#3435576176
1!
#3435700144
0!
#3436591984
1!
#3436715936
0!
#3437607776
1!
#3437731728
0!
#3438623568
1!
#3438747520
0!
#3439639360
1!
#3439763312
0!
#3440655152
1!
#3440779104
0!
#3441670944
1!
#3441794896
0!
#3442686736
1!
#3442810688
0!
#3443702528
1!
#3443826480
0!
#3444718320
1!
#3444842280
0!
#3445734112
1!
#3445858072
0!
#3446749912
1!
#3446873864
0!
#3447765688
1!
#3447889656
0!
#3448781496
1!
#3448905448
0!
#3449797288
1!
#3449921240
0!
#3450813080
1!
#3450937032
0!
#3451828872
1!
#3451952824
0!
#3452844664
1!
#3452968616
0!
#3453860456
1!
#3453984408
0!
#3454876248
1!
#3455000200
0!
#3455892040
1!
#3456015992
0!
#3456907832
1!
#3457031784
0!
#3457923624
1!
#3458047576
0!
#3458939416
1!
#3459063368
0!
#3459955208
1!
#3460079160
0!
#3460971000
1!
#3461094960
0!
#3461986792
1!
#3462110752
0!
#3463002592
1!
#3463126544
0!
#3464018368
1!
#3464142336
0!
#3465034176
1!
#3465158128
0!
#3466049968
1!
#3466173920
0!
#3467065760
1!
#3467189712
0!
#3468081552
1!
#3468205504
0!
#3469097344
1!
#3469221296
0!
#3470113136
1!
#3470237088
0!
#3471128928
1!
#3471252880
0!
#3472144720
1!
#3472268672
0!
#3473160512
1!
#3473284464
0!
#3474176304
1!
#3474300256
0!
#3475192096
1!
#3475316048
0!
#3476207888
1!
#3476331840
0!
#3477223680
1!
#3477347640
0!
#3478239472
1!
#3478363432
0!
#3479255272
1!
#3479379224
0!
#3480271048
1!
#3480395016
0!
#3481286856
1!
#3481410808
0!
#3482302648
1!
#3482426600
0!
#3483318440
1!
#3483442392
0!
#3484334232
1!
#3484458184
0!
#3485350024
1!
#3485473976
0!
#3486365816
1!
#3486489768
0!
#3487381608
1!
#3487505560
0!
#3488397400
1!
#3488521352
0!
#3489413192
1!
#3489537144
0!
#3490428984
1!
#3490552936
0!
#3491444776
1!
#3491568728
0!
#3492460568
1!
#3492584520
0!
#3493476360
1!
#3493600320
0!
#3494492152
1!
#3494616112
0!
#3495507952
1!
#3495631904
0!
#3496523728
1!
#3496647696
0!
#3497539536
1!
#3497663488
0!
#3498555328
1!
#3498679280
0!
#3499571120
1!
#3499695072
0!
#3500586912
1!
#3500710864
0!
#3501602704
1!
#3501726656
0!
#3502618496
1!
#3502742448
0!
#3503634288
1!
#3503758240
0!
#3504650080
1!
#3504774032
0!
#3505665872
1!
#3505789824
0!
#3506681664
1!
#3506805616
0!
#3507697456
1!
#3507821408
0!
#3508713248
1!
#3508837200
0!
#3509729040
1!
#3509853000
0!
#3510744832
1!
#3511324368
0!
#3511760632
1!
#3512340160
0!
#3512776408
1!
#3513355952
0!
#3513792216
1!
#3514371744
0!
#3514808008
1!
#3515387536
0!
#3515823800
1!
#3516403328
0!
#3516839592
1!
#3517419120
0!
#3517855384
1!
#3518434912
0!
#3518871176
1!
#3519450704
0!
#3519886968
1!
#3520466496
0!
#3520902760
1!
#3521482288
0!
#3521918552
1!
#3522498080
0!
#3522934344
1!
#3523513872
0!
#3523950136
1!
#3524529664
0!
#3524965928
1!
#3525545456
0!
#3525981720
1!
#3526561256
0!
#3526997512
1!
#3527577048
0!
#3528013312
1!
#3528592840
0!
#3529029088
1!
#3529608632
0!
#3530044896
1!
#3530624424
0!
#3531060688
1!
#3531640216
0!
#3532076480
1!
#3532656008
0!
#3533092272
1!
#3533671800
0!
#3534108064
1!
#3534687592
0!
#3535123856
1!
#3535703384
0!
#3536139648
1!
#3536719176
0!
#3537155440
1!
#3537734968
0!
#3538171232
1!
#3538750760
0!
#3539187024
1!
#3539766552
0!
#3540202816
1!
#3540782344
0!
#3541218608
1!
#3541798136
0!
#3542234400
1!
#3542813936
0!
#3543250192
1!
#3543829728
0!
#3544265992
1!
#3544845520
0!
#3545281768
1!
#3545861312
0!
#3546297576
1!
#3546877104
0!
#3547313368
1!
#3547892896
0!
#3548329160
1!
#3548908688
0!
#3549344952
1!
#3549924480
0!
#3550360744
1!
#3550940272
0!
#3551376536
1!
#3551956064
0!
#3552392328
1!
#3552971856
0!
#3553408120
1!
#3553987648
0!
#3554423912
1!
#3555003440
0!
#3555439704
1!
#3556019232
0!
#3556455496
1!
#3557035024
0!
#3557471288
1!
#3558050816
0!
#3558487080
1!
#3559066616
0!
#3559502872
1!
#3560082408
0!
#3560518672
1!
#3561098200
0!
#3561534448
1!
#3562113992
0!
#3562550256
1!
#3563129784
0!
#3563566048
1!
#3564145576
0!
#3564581840
1!
#3565161368
0!
#3565597632
1!
#3566177160
0!
#3566613424
1!
#3567192952
0!
#3567629216
1!
#3568208744
0!
#3568645008
1!
#3569224536
0!
#3569660800
1!
#3570240328
0!
#3570676592
1!
#3571256120
0!
#3571692384
1!
#3572271912
0!
#3572708176
1!
#3573287704
0!
#3573723968
1!
#3574303496
0!
#3574739760
1!
#3575319296
0!
#3575755552
1!
#3576335088
0!
#3576771352
1!
#3577350880
0!
#3577787128
1!
#3578366672
0!
#3578802936
1!
#3579382464
0!
#3579818728
1!
#3580398256
0!
#3580834520
1!
#3581414048
0!
#3581850312
1!
#3582429840
0!
#3582866104
1!
#3583445632
0!
#3583881896
1!
#3584461424
0!
#3584897688
1!
#3585477216
0!
#3585913480
1!
#3586493008
0!
#3586929272
1!
#3587508800
0!
#3587945064
1!
#3588524592
0!
#3588960856
1!
#3589540384
0!
#3589976648
1!
#3590556176
0!
#3590992440
1!
#3591571976
0!
#3592008232
1!
#3592587768
0!
#3593024032
1!
#3593603560
0!
#3594039808
1!
#3594619352
0!
#3595055616
1!
#3595635144
0!
#3596071408
1!
#3596650936
0!
#3597087200
1!
#3597666728
0!
#3598102992
1!
#3598682520
0!
#3599118784
1!
#3599698312
0!
#3600134576
1!
#3600714104
0!
#3601150368
1!
#3601729896
0!
#3602166160
1!
#3602745688
0!
#3603181952
1!
#3603761480
0!
#3604197744
1!
#3604777272
0!
#3605213536
1!
#3605793064
0!
#3606229328
1!
#3606808856
0!
#3607245120
1!
#3607824656
0!
#3608260912
1!
#3608840448
0!
#3609276720
1!
#3609407840
0!
#3610292488
1!
#3610423648
0!
#3611308296
1!
#3611439440
0!
#3612324088
1!
#3612455232
0!
#3613339880
1!
#3613471024
0!
#3614355672
1!
#3614486816
0!
#3615371464
1!
#3615502608
0!
#3616387256
1!
#3616518400
0!
#3617403048
1!
#3617534192
0!
#3618418840
1!
#3618549984
0!
#3619434632
1!
#3619565776
0!
#3620450424
1!
#3620581568
0!
#3621466216
1!
#3621597360
0!
#3622482008
1!
#3622613152
0!
#3623497800
1!
#3623628952
0!
#3624513592
1!
#3624644744
0!
#3625529392
1!
#3625660536
0!
#3626545168
1!
#3626676328
0!
#3627560976
1!
#3627692120
0!
#3628576768
1!
#3628707912
0!
#3629592560
1!
#3629723704
0!
#3630608352
1!
#3630739496
0!
#3631624144
1!
#3631755288
0!
#3632639936
1!
#3632771080
0!
#3633655728
1!
#3633786872
0!
#3634671520
1!
#3634802664
0!
#3635687312
1!
#3635818456
0!
#3636703104
1!
#3636834248
0!
#3637718896
1!
#3637850040
0!
#3638734688
1!
#3638865832
0!
#3639750480
1!
#3639881632
0!
#3640766272
1!
#3640897424
0!
#3641782072
1!
#3641913216
0!
#3642797848
1!
#3642929008
0!
#3643813656
1!
